EESchema Schematic File Version 4
LIBS:pico-fritzmon-cache
EELAYER 30 0
EELAYER END
$Descr A4 11693 8268
encoding utf-8
Sheet 1 1
Title "Pico / ESP32-WROOM-32"
Date "2021-07-07"
Rev ""
Comp ""
Comment1 ""
Comment2 ""
Comment3 ""
Comment4 ""
$EndDescr
$Comp
L pico-fritzmon-rescue:Pico-MCU_RaspberryPi_and_Boards U2
U 1 1 60D0E3B5
P 5800 5800
F 0 "U2" H 5800 7015 50  0000 C CNN
F 1 "Pico" H 5800 6924 50  0000 C CNN
F 2 "RPi_Pico:RPi_Pico_SMD_TH" V 5800 5800 50  0001 C CNN
F 3 "" H 5800 5800 50  0001 C CNN
	1    5800 5800
	1    0    0    -1  
$EndComp
NoConn ~ 5100 5150
NoConn ~ 5100 5250
NoConn ~ 5100 5350
NoConn ~ 5100 5450
NoConn ~ 5100 5550
NoConn ~ 5100 5650
NoConn ~ 5100 5750
NoConn ~ 5100 5850
NoConn ~ 5100 5950
NoConn ~ 5100 6050
NoConn ~ 5100 6550
NoConn ~ 5700 6950
NoConn ~ 5800 6950
NoConn ~ 5900 6950
NoConn ~ 6500 4950
NoConn ~ 6500 5150
NoConn ~ 6500 5250
NoConn ~ 6500 5350
NoConn ~ 6500 5450
NoConn ~ 6500 5550
NoConn ~ 6500 5650
NoConn ~ 6500 5750
NoConn ~ 6500 5850
NoConn ~ 6500 5950
NoConn ~ 6500 6050
NoConn ~ 6500 6150
NoConn ~ 6500 6250
NoConn ~ 6500 6350
NoConn ~ 6500 6450
NoConn ~ 6500 6550
NoConn ~ 6500 6650
NoConn ~ 6500 6750
$Comp
L Regulator_Linear:LM1117-3.3 U3
U 1 1 60E06349
P 7500 4850
F 0 "U3" H 7500 5092 50  0000 C CNN
F 1 "LM1117-3.3" H 7500 5001 50  0000 C CNN
F 2 "" H 7500 4850 50  0001 C CNN
F 3 "http://www.ti.com/lit/ds/symlink/lm1117.pdf" H 7500 4850 50  0001 C CNN
	1    7500 4850
	1    0    0    -1  
$EndComp
$Comp
L Device:CP C1
U 1 1 60E0E000
P 7050 5000
F 0 "C1" H 7100 4850 50  0000 L BNN
F 1 "100nF" H 7100 4800 50  0000 L CNN
F 2 "" H 7088 4850 50  0001 C CNN
F 3 "~" H 7050 5000 50  0001 C CNN
	1    7050 5000
	1    0    0    -1  
$EndComp
$Comp
L Device:CP C2
U 1 1 60E229B9
P 7950 5000
F 0 "C2" H 8068 5046 50  0000 L CNN
F 1 "470µF" H 8068 4955 50  0000 L CNN
F 2 "" H 7988 4850 50  0001 C CNN
F 3 "~" H 7950 5000 50  0001 C CNN
	1    7950 5000
	1    0    0    -1  
$EndComp
Wire Wire Line
	7050 4850 7200 4850
Connection ~ 7050 4850
$Comp
L power:GND #PWR0101
U 1 1 60E2E995
P 7500 5600
F 0 "#PWR0101" H 7500 5350 50  0001 C CNN
F 1 "GND" H 7505 5427 50  0000 C CNN
F 2 "" H 7500 5600 50  0001 C CNN
F 3 "" H 7500 5600 50  0001 C CNN
	1    7500 5600
	1    0    0    -1  
$EndComp
Wire Wire Line
	7500 5150 7500 5600
Connection ~ 7500 5600
Wire Wire Line
	7950 5150 7950 5600
Wire Wire Line
	7950 5600 7500 5600
Wire Wire Line
	6500 5050 6750 5050
Wire Wire Line
	6750 5050 6750 5600
Wire Wire Line
	6750 5600 7050 5600
Wire Wire Line
	7050 5150 7050 5600
Wire Wire Line
	7050 5600 7500 5600
Connection ~ 7050 5600
Wire Wire Line
	7800 4850 7950 4850
Wire Wire Line
	7950 4850 8150 4850
Connection ~ 7950 4850
Text Label 8150 4850 0    50   ~ 0
+3V3
Wire Wire Line
	5100 5050 4650 5050
Wire Wire Line
	4650 5050 4650 5150
$Comp
L power:GND #PWR0102
U 1 1 60E8BC1F
P 4650 5150
F 0 "#PWR0102" H 4650 4900 50  0001 C CNN
F 1 "GND" H 4655 4977 50  0000 C CNN
F 2 "" H 4650 5150 50  0001 C CNN
F 3 "" H 4650 5150 50  0001 C CNN
	1    4650 5150
	1    0    0    -1  
$EndComp
$Comp
L Device:LED_Dual_ACA D1
U 1 1 60E8BFE5
P 4200 5600
F 0 "D1" H 4200 6025 50  0000 C CNN
F 1 "LED_Dual_ACA" H 4200 5934 50  0000 C CNN
F 2 "" H 4200 5600 50  0001 C CNN
F 3 "~" H 4200 5600 50  0001 C CNN
	1    4200 5600
	1    0    0    -1  
$EndComp
$Comp
L Device:LED_Dual_ACA D2
U 1 1 60E8CB84
P 4200 6300
F 0 "D2" H 4200 6725 50  0000 C CNN
F 1 "LED_Dual_ACA" H 4200 6634 50  0000 C CNN
F 2 "" H 4200 6300 50  0001 C CNN
F 3 "~" H 4200 6300 50  0001 C CNN
	1    4200 6300
	1    0    0    -1  
$EndComp
$Comp
L Device:LED_Dual_ACA D3
U 1 1 60E8D0A3
P 4200 7000
F 0 "D3" H 4200 7425 50  0000 C CNN
F 1 "LED_Dual_ACA" H 4200 7334 50  0000 C CNN
F 2 "" H 4200 7000 50  0001 C CNN
F 3 "~" H 4200 7000 50  0001 C CNN
	1    4200 7000
	1    0    0    -1  
$EndComp
Wire Wire Line
	5100 6150 4900 6150
Wire Wire Line
	4900 6150 4900 5500
Wire Wire Line
	4900 5500 4500 5500
Wire Wire Line
	5100 6250 4700 6250
Wire Wire Line
	4700 6250 4700 5700
Wire Wire Line
	4700 5700 4500 5700
Wire Wire Line
	5100 6350 4650 6350
Wire Wire Line
	4650 6350 4650 6200
Wire Wire Line
	4650 6200 4500 6200
Wire Wire Line
	5100 6450 4600 6450
Wire Wire Line
	4600 6450 4600 6400
Wire Wire Line
	4600 6400 4500 6400
Wire Wire Line
	5100 6750 4800 6750
Wire Wire Line
	4800 6750 4800 7100
Wire Wire Line
	4800 7100 4500 7100
Wire Wire Line
	5100 6650 4650 6650
Wire Wire Line
	4650 6650 4650 6900
Wire Wire Line
	4650 6900 4500 6900
$Comp
L Device:R R1
U 1 1 60EAA088
P 3600 5600
F 0 "R1" V 3393 5600 50  0000 C CNN
F 1 "330" V 3484 5600 50  0000 C CNN
F 2 "" V 3530 5600 50  0001 C CNN
F 3 "~" H 3600 5600 50  0001 C CNN
	1    3600 5600
	0    1    1    0   
$EndComp
$Comp
L Device:R R2
U 1 1 60EAB7E3
P 3600 6300
F 0 "R2" V 3393 6300 50  0000 C CNN
F 1 "330" V 3484 6300 50  0000 C CNN
F 2 "" V 3530 6300 50  0001 C CNN
F 3 "~" H 3600 6300 50  0001 C CNN
	1    3600 6300
	0    1    1    0   
$EndComp
$Comp
L Device:R R3
U 1 1 60EAC0C0
P 3600 7000
F 0 "R3" V 3393 7000 50  0000 C CNN
F 1 "330" V 3484 7000 50  0000 C CNN
F 2 "" V 3530 7000 50  0001 C CNN
F 3 "~" H 3600 7000 50  0001 C CNN
	1    3600 7000
	0    1    1    0   
$EndComp
Wire Wire Line
	3900 5600 3750 5600
Wire Wire Line
	3900 6300 3750 6300
Wire Wire Line
	3900 7000 3750 7000
Wire Wire Line
	3450 5600 3300 5600
Wire Wire Line
	3450 6300 3300 6300
Wire Wire Line
	3450 7000 3300 7000
$Comp
L power:GND #PWR0103
U 1 1 60EBBF89
P 3300 5600
F 0 "#PWR0103" H 3300 5350 50  0001 C CNN
F 1 "GND" H 3305 5427 50  0000 C CNN
F 2 "" H 3300 5600 50  0001 C CNN
F 3 "" H 3300 5600 50  0001 C CNN
	1    3300 5600
	1    0    0    -1  
$EndComp
$Comp
L power:GND #PWR0104
U 1 1 60EBC466
P 3300 6300
F 0 "#PWR0104" H 3300 6050 50  0001 C CNN
F 1 "GND" H 3305 6127 50  0000 C CNN
F 2 "" H 3300 6300 50  0001 C CNN
F 3 "" H 3300 6300 50  0001 C CNN
	1    3300 6300
	1    0    0    -1  
$EndComp
$Comp
L power:GND #PWR0105
U 1 1 60EBC8EE
P 3300 7000
F 0 "#PWR0105" H 3300 6750 50  0001 C CNN
F 1 "GND" H 3305 6827 50  0000 C CNN
F 2 "" H 3300 7000 50  0001 C CNN
F 3 "" H 3300 7000 50  0001 C CNN
	1    3300 7000
	1    0    0    -1  
$EndComp
$Comp
L RF_Module:ESP32-WROOM-32 U1
U 1 1 60E75AC1
P 5800 2450
F 0 "U1" H 5800 4200 50  0000 C CNN
F 1 "ESP32-WROOM-32" H 5800 4100 50  0000 C CNN
F 2 "RF_Module:ESP32-WROOM-32" H 5800 950 50  0001 C CNN
F 3 "https://www.espressif.com/sites/default/files/documentation/esp32-wroom-32_datasheet_en.pdf" H 5500 2500 50  0001 C CNN
	1    5800 2450
	1    0    0    -1  
$EndComp
$Comp
L power:GND #PWR0106
U 1 1 60E9F18B
P 5800 3950
F 0 "#PWR0106" H 5800 3700 50  0001 C CNN
F 1 "GND" H 5805 3777 50  0000 C CNN
F 2 "" H 5800 3950 50  0001 C CNN
F 3 "" H 5800 3950 50  0001 C CNN
	1    5800 3950
	1    0    0    -1  
$EndComp
Wire Wire Line
	5800 3950 5800 3850
Wire Wire Line
	5100 4850 5000 4850
Wire Wire Line
	5000 4850 5000 4500
Wire Wire Line
	5000 4500 6800 4500
Wire Wire Line
	6800 4500 6800 2250
Wire Wire Line
	6800 2250 6400 2250
Wire Wire Line
	5100 4950 4850 4950
Wire Wire Line
	4850 4950 4850 4350
Wire Wire Line
	4850 4350 6600 4350
Wire Wire Line
	6600 4350 6600 2350
Wire Wire Line
	6600 2350 6400 2350
Wire Wire Line
	5800 1050 5800 950 
Text Label 5800 950  0    50   ~ 0
+3V3
$Comp
L Device:R R4
U 1 1 60EDA7D0
P 4900 1250
F 0 "R4" V 4693 1250 50  0000 C CNN
F 1 "10K" V 4784 1250 50  0000 C CNN
F 2 "" V 4830 1250 50  0001 C CNN
F 3 "~" H 4900 1250 50  0001 C CNN
	1    4900 1250
	0    1    1    0   
$EndComp
Wire Wire Line
	5050 1250 5200 1250
Wire Wire Line
	4750 1250 4650 1250
Text Label 4650 1250 2    50   ~ 0
+3V3
Wire Wire Line
	6500 4850 7050 4850
NoConn ~ 5200 1450
NoConn ~ 5200 1550
NoConn ~ 5200 2450
NoConn ~ 5200 2550
NoConn ~ 5200 2650
NoConn ~ 5200 2750
NoConn ~ 5200 2850
NoConn ~ 5200 2950
NoConn ~ 6400 1250
NoConn ~ 6400 1350
NoConn ~ 6400 1450
NoConn ~ 6400 1550
NoConn ~ 6400 1650
NoConn ~ 6400 1750
NoConn ~ 6400 1850
NoConn ~ 6400 1950
NoConn ~ 6400 2050
NoConn ~ 6400 2150
NoConn ~ 6400 2450
NoConn ~ 6400 2550
NoConn ~ 6400 2650
NoConn ~ 6400 2750
NoConn ~ 6400 2850
NoConn ~ 6400 2950
NoConn ~ 6400 3050
NoConn ~ 6400 3150
NoConn ~ 6400 3250
NoConn ~ 6400 3350
NoConn ~ 6400 3450
NoConn ~ 6400 3550
$EndSCHEMATC
