EESchema Schematic File Version 4
EELAYER 30 0
EELAYER END
$Descr A4 11693 8268
encoding utf-8
Sheet 1 1
Title "pico-fritzmon / ESP8266 ESP-12E"
Date ""
Rev ""
Comp ""
Comment1 ""
Comment2 ""
Comment3 ""
Comment4 ""
$EndDescr
NoConn ~ 5150 4450
NoConn ~ 5150 4550
NoConn ~ 5150 4650
NoConn ~ 5150 4750
NoConn ~ 5150 4850
NoConn ~ 5150 4950
NoConn ~ 5150 5050
NoConn ~ 5150 5150
NoConn ~ 5150 5250
NoConn ~ 5150 5350
NoConn ~ 5150 5850
NoConn ~ 5750 6250
NoConn ~ 5850 6250
NoConn ~ 5950 6250
NoConn ~ 6550 4250
NoConn ~ 6550 4450
NoConn ~ 6550 4550
NoConn ~ 6550 4650
NoConn ~ 6550 4750
NoConn ~ 6550 4850
NoConn ~ 6550 4950
NoConn ~ 6550 5050
NoConn ~ 6550 5150
NoConn ~ 6550 5250
NoConn ~ 6550 5350
NoConn ~ 6550 5450
NoConn ~ 6550 5550
NoConn ~ 6550 5650
NoConn ~ 6550 5750
NoConn ~ 6550 5850
NoConn ~ 6550 5950
NoConn ~ 6550 6050
$Comp
L Device:CP C1
U 1 1 60E0E000
P 7100 4300
F 0 "C1" H 7150 4150 50  0000 L BNN
F 1 "10uF" H 7150 4100 50  0000 L CNN
F 2 "" H 7138 4150 50  0001 C CNN
F 3 "~" H 7100 4300 50  0001 C CNN
	1    7100 4300
	1    0    0    -1  
$EndComp
$Comp
L Device:CP C2
U 1 1 60E229B9
P 8200 4150
F 0 "C2" H 8318 4196 50  0000 L CNN
F 1 "470µF" H 8318 4105 50  0000 L CNN
F 2 "" H 8238 4000 50  0001 C CNN
F 3 "~" H 8200 4150 50  0001 C CNN
	1    8200 4150
	1    0    0    -1  
$EndComp
$Comp
L power:GND #PWR0101
U 1 1 60E2E995
P 7750 5000
F 0 "#PWR0101" H 7750 4750 50  0001 C CNN
F 1 "GND" H 7755 4827 50  0000 C CNN
F 2 "" H 7750 5000 50  0001 C CNN
F 3 "" H 7750 5000 50  0001 C CNN
	1    7750 5000
	1    0    0    -1  
$EndComp
Wire Wire Line
	6550 4350 6800 4350
Wire Wire Line
	6800 4350 6800 4900
Wire Wire Line
	6800 4900 7100 4900
Wire Wire Line
	7100 4450 7100 4900
Connection ~ 7100 4900
Text Label 8450 4000 0    50   ~ 0
+3V3
Wire Wire Line
	5150 4350 4700 4350
Wire Wire Line
	4700 4350 4700 4450
$Comp
L power:GND #PWR0102
U 1 1 60E8BC1F
P 4700 4450
F 0 "#PWR0102" H 4700 4200 50  0001 C CNN
F 1 "GND" H 4705 4277 50  0000 C CNN
F 2 "" H 4700 4450 50  0001 C CNN
F 3 "" H 4700 4450 50  0001 C CNN
	1    4700 4450
	1    0    0    -1  
$EndComp
$Comp
L Device:LED_Dual_ACA D1
U 1 1 60E8BFE5
P 4250 4900
F 0 "D1" H 4250 5325 50  0000 C CNN
F 1 "LED_Dual_ACA" H 4250 5234 50  0000 C CNN
F 2 "" H 4250 4900 50  0001 C CNN
F 3 "~" H 4250 4900 50  0001 C CNN
	1    4250 4900
	1    0    0    -1  
$EndComp
$Comp
L Device:LED_Dual_ACA D2
U 1 1 60E8CB84
P 4250 5600
F 0 "D2" H 4250 6025 50  0000 C CNN
F 1 "LED_Dual_ACA" H 4250 5934 50  0000 C CNN
F 2 "" H 4250 5600 50  0001 C CNN
F 3 "~" H 4250 5600 50  0001 C CNN
	1    4250 5600
	1    0    0    -1  
$EndComp
$Comp
L Device:LED_Dual_ACA D3
U 1 1 60E8D0A3
P 4250 6300
F 0 "D3" H 4250 6725 50  0000 C CNN
F 1 "LED_Dual_ACA" H 4250 6634 50  0000 C CNN
F 2 "" H 4250 6300 50  0001 C CNN
F 3 "~" H 4250 6300 50  0001 C CNN
	1    4250 6300
	1    0    0    -1  
$EndComp
Wire Wire Line
	5150 5450 4950 5450
Wire Wire Line
	4950 5450 4950 4800
Wire Wire Line
	4950 4800 4550 4800
Wire Wire Line
	5150 5550 4750 5550
Wire Wire Line
	4750 5550 4750 5000
Wire Wire Line
	4750 5000 4550 5000
Wire Wire Line
	5150 5650 4700 5650
Wire Wire Line
	4700 5650 4700 5500
Wire Wire Line
	4700 5500 4550 5500
Wire Wire Line
	5150 5750 4650 5750
Wire Wire Line
	4650 5750 4650 5700
Wire Wire Line
	4650 5700 4550 5700
Wire Wire Line
	5150 6050 4850 6050
Wire Wire Line
	4850 6050 4850 6400
Wire Wire Line
	4850 6400 4550 6400
Wire Wire Line
	5150 5950 4700 5950
Wire Wire Line
	4700 5950 4700 6200
Wire Wire Line
	4700 6200 4550 6200
$Comp
L Device:R R1
U 1 1 60EAA088
P 3650 4900
F 0 "R1" V 3443 4900 50  0000 C CNN
F 1 "330" V 3534 4900 50  0000 C CNN
F 2 "" V 3580 4900 50  0001 C CNN
F 3 "~" H 3650 4900 50  0001 C CNN
	1    3650 4900
	0    1    1    0   
$EndComp
$Comp
L Device:R R2
U 1 1 60EAB7E3
P 3650 5600
F 0 "R2" V 3443 5600 50  0000 C CNN
F 1 "330" V 3534 5600 50  0000 C CNN
F 2 "" V 3580 5600 50  0001 C CNN
F 3 "~" H 3650 5600 50  0001 C CNN
	1    3650 5600
	0    1    1    0   
$EndComp
$Comp
L Device:R R3
U 1 1 60EAC0C0
P 3650 6300
F 0 "R3" V 3443 6300 50  0000 C CNN
F 1 "330" V 3534 6300 50  0000 C CNN
F 2 "" V 3580 6300 50  0001 C CNN
F 3 "~" H 3650 6300 50  0001 C CNN
	1    3650 6300
	0    1    1    0   
$EndComp
Wire Wire Line
	3950 4900 3800 4900
Wire Wire Line
	3950 5600 3800 5600
Wire Wire Line
	3950 6300 3800 6300
Wire Wire Line
	3500 4900 3350 4900
Wire Wire Line
	3500 5600 3350 5600
Wire Wire Line
	3500 6300 3350 6300
$Comp
L power:GND #PWR0103
U 1 1 60EBBF89
P 3350 4900
F 0 "#PWR0103" H 3350 4650 50  0001 C CNN
F 1 "GND" H 3355 4727 50  0000 C CNN
F 2 "" H 3350 4900 50  0001 C CNN
F 3 "" H 3350 4900 50  0001 C CNN
	1    3350 4900
	1    0    0    -1  
$EndComp
$Comp
L power:GND #PWR0104
U 1 1 60EBC466
P 3350 5600
F 0 "#PWR0104" H 3350 5350 50  0001 C CNN
F 1 "GND" H 3355 5427 50  0000 C CNN
F 2 "" H 3350 5600 50  0001 C CNN
F 3 "" H 3350 5600 50  0001 C CNN
	1    3350 5600
	1    0    0    -1  
$EndComp
$Comp
L power:GND #PWR0105
U 1 1 60EBC8EE
P 3350 6300
F 0 "#PWR0105" H 3350 6050 50  0001 C CNN
F 1 "GND" H 3355 6127 50  0000 C CNN
F 2 "" H 3350 6300 50  0001 C CNN
F 3 "" H 3350 6300 50  0001 C CNN
	1    3350 6300
	1    0    0    -1  
$EndComp
Wire Wire Line
	6550 4150 7100 4150
$Comp
L MCU_RaspberryPi_and_Boards:Pico U2
U 1 1 60E61F13
P 5850 5100
F 0 "U2" H 5850 6315 50  0000 C CNN
F 1 "Pico" H 5850 6224 50  0000 C CNN
F 2 "RPi_Pico:RPi_Pico_SMD_TH" V 5850 5100 50  0001 C CNN
F 3 "" H 5850 5100 50  0001 C CNN
	1    5850 5100
	1    0    0    -1  
$EndComp
$Comp
L RF_Module:ESP-12E U1
U 1 1 60E64A63
P 5750 2300
F 0 "U1" H 5750 3450 50  0000 C CNN
F 1 "ESP-12E" H 5750 3350 50  0000 C CNN
F 2 "RF_Module:ESP-12E" H 5750 2300 50  0001 C CNN
F 3 "http://wiki.ai-thinker.com/_media/esp8266/esp8266_series_modules_user_manual_v1.1.pdf" H 5400 2400 50  0001 C CNN
	1    5750 2300
	1    0    0    -1  
$EndComp
Wire Wire Line
	5150 4150 4950 4150
Wire Wire Line
	4950 4150 4950 3700
Wire Wire Line
	4950 3700 6650 3700
Wire Wire Line
	6650 3700 6650 2400
Wire Wire Line
	6650 2400 6350 2400
Wire Wire Line
	5150 4250 4800 4250
Wire Wire Line
	4800 4250 4800 3500
Wire Wire Line
	4800 3500 6500 3500
Wire Wire Line
	6500 3500 6500 2600
Wire Wire Line
	6500 2600 6350 2600
Wire Wire Line
	5750 1500 5750 1400
Text Label 5750 1400 0    50   ~ 0
+3V3
$Comp
L power:GND #PWR01
U 1 1 60E722CA
P 5750 3100
F 0 "#PWR01" H 5750 2850 50  0001 C CNN
F 1 "GND" H 5755 2927 50  0000 C CNN
F 2 "" H 5750 3100 50  0001 C CNN
F 3 "" H 5750 3100 50  0001 C CNN
	1    5750 3100
	1    0    0    -1  
$EndComp
Wire Wire Line
	5750 3000 5750 3100
$Comp
L Device:R R4
U 1 1 60E735EC
P 4800 1700
F 0 "R4" V 4593 1700 50  0000 C CNN
F 1 "10K" V 4684 1700 50  0000 C CNN
F 2 "" V 4730 1700 50  0001 C CNN
F 3 "~" H 4800 1700 50  0001 C CNN
	1    4800 1700
	0    1    1    0   
$EndComp
$Comp
L Device:R R5
U 1 1 60E73B65
P 4800 1900
F 0 "R5" V 4950 1900 50  0000 C BNN
F 1 "10K" V 5000 1900 50  0000 C CNN
F 2 "" V 4730 1900 50  0001 C CNN
F 3 "~" H 4800 1900 50  0001 C CNN
	1    4800 1900
	0    1    1    0   
$EndComp
Wire Wire Line
	5150 1700 5050 1700
Wire Wire Line
	5150 1900 4950 1900
Wire Wire Line
	4650 1700 4550 1700
Wire Wire Line
	4650 1900 4550 1900
Text Label 4550 1700 2    50   ~ 0
+3V3
Text Label 4550 1900 2    50   ~ 0
+3V3
$Comp
L Device:R R7
U 1 1 60E799BE
P 6800 1900
F 0 "R7" V 6950 1900 50  0000 C BNN
F 1 "10K" V 7000 1900 50  0000 C CNN
F 2 "" V 6730 1900 50  0001 C CNN
F 3 "~" H 6800 1900 50  0001 C CNN
	1    6800 1900
	0    1    1    0   
$EndComp
$Comp
L Device:R R6
U 1 1 60E7A280
P 6800 1700
F 0 "R6" V 6593 1700 50  0000 C CNN
F 1 "4.7K" V 6684 1700 50  0000 C CNN
F 2 "" V 6730 1700 50  0001 C CNN
F 3 "~" H 6800 1700 50  0001 C CNN
	1    6800 1700
	0    1    1    0   
$EndComp
Wire Wire Line
	6350 1700 6650 1700
Wire Wire Line
	6350 1900 6650 1900
Wire Wire Line
	6950 1700 7050 1700
Wire Wire Line
	6950 1900 7050 1900
Text Label 7050 1700 0    50   ~ 0
+3V3
Text Label 7050 1900 0    50   ~ 0
+3V3
NoConn ~ 6350 1800
NoConn ~ 6350 2000
NoConn ~ 6350 2100
NoConn ~ 6350 2200
NoConn ~ 6350 2300
NoConn ~ 6350 2500
NoConn ~ 5150 2800
NoConn ~ 5150 2700
NoConn ~ 5150 2600
NoConn ~ 5150 2500
NoConn ~ 5150 2400
NoConn ~ 5150 2300
NoConn ~ 5150 2100
Wire Wire Line
	6350 2700 6350 3350
Wire Wire Line
	6350 3350 5050 3350
Wire Wire Line
	5050 3350 5050 1700
Connection ~ 5050 1700
Wire Wire Line
	5050 1700 4950 1700
$Comp
L ht7333-a:HT7333-A L2
U 1 1 610C7864
P 7600 4150
F 0 "L2" H 7650 4547 60  0000 C CNN
F 1 "HT7333-A" H 7650 4441 60  0000 C CNN
F 2 "" H 7600 4150 60  0000 C CNN
F 3 "" H 7600 4150 60  0000 C CNN
	1    7600 4150
	1    0    0    -1  
$EndComp
Wire Wire Line
	7100 4150 7200 4150
Connection ~ 7100 4150
Wire Wire Line
	7100 4900 7750 4900
Wire Wire Line
	7750 4450 7750 4900
Connection ~ 7750 4900
Wire Wire Line
	7750 4900 8200 4900
Wire Wire Line
	8200 4900 8200 4300
Wire Wire Line
	8100 4000 8200 4000
Wire Wire Line
	8200 4000 8450 4000
Connection ~ 8200 4000
Wire Wire Line
	7750 5000 7750 4900
$EndSCHEMATC
