EESchema Schematic File Version 4
LIBS:pico-fritzmon-cache
EELAYER 30 0
EELAYER END
$Descr A4 11693 8268
encoding utf-8
Sheet 1 1
Title "Pico / ESP8266 ESP-01"
Date ""
Rev ""
Comp ""
Comment1 ""
Comment2 ""
Comment3 ""
Comment4 ""
$EndDescr
$Comp
L pico-fritzmon-rescue:Pico-MCU_RaspberryPi_and_Boards U2
U 1 1 60D0E3B5
P 6350 3400
F 0 "U2" H 6350 4615 50  0000 C CNN
F 1 "Pico" H 6350 4524 50  0000 C CNN
F 2 "RPi_Pico:RPi_Pico_SMD_TH" V 6350 3400 50  0001 C CNN
F 3 "" H 6350 3400 50  0001 C CNN
	1    6350 3400
	1    0    0    -1  
$EndComp
$Comp
L ESP8266:ESP-01v090 U1
U 1 1 60D0F618
P 6350 1600
F 0 "U1" H 6350 2115 50  0000 C CNN
F 1 "ESP8266 ESP-01" H 6350 2024 50  0000 C CNN
F 2 "" H 6350 1600 50  0001 C CNN
F 3 "http://l0l.org.uk/2014/12/esp8266-modules-hardware-guide-gotta-catch-em-all/" H 6350 1600 50  0001 C CNN
	1    6350 1600
	1    0    0    -1  
$EndComp
$Comp
L Device:R R5
U 1 1 60D74500
P 4950 1650
F 0 "R5" V 4850 1600 50  0000 L CNN
F 1 "4.7k" V 4800 1550 50  0000 L BNN
F 2 "" V 4880 1650 50  0001 C CNN
F 3 "~" H 4950 1650 50  0001 C CNN
	1    4950 1650
	0    -1   -1   0   
$EndComp
NoConn ~ 5650 2750
NoConn ~ 5650 2850
NoConn ~ 5650 2950
NoConn ~ 5650 3050
NoConn ~ 5650 3150
NoConn ~ 5650 3250
NoConn ~ 5650 3350
NoConn ~ 5650 3450
NoConn ~ 5650 3550
NoConn ~ 5650 3650
NoConn ~ 5650 4150
NoConn ~ 6250 4550
NoConn ~ 6350 4550
NoConn ~ 6450 4550
NoConn ~ 7050 2550
NoConn ~ 7050 2750
NoConn ~ 7050 2850
NoConn ~ 7050 2950
NoConn ~ 7050 3050
NoConn ~ 7050 3150
NoConn ~ 7050 3250
NoConn ~ 7050 3350
NoConn ~ 7050 3450
NoConn ~ 7050 3550
NoConn ~ 7050 3650
NoConn ~ 7050 3750
NoConn ~ 7050 3850
NoConn ~ 7050 3950
NoConn ~ 7050 4050
NoConn ~ 7050 4150
NoConn ~ 7050 4250
NoConn ~ 7050 4350
$Comp
L Regulator_Linear:LM1117-3.3 U3
U 1 1 60E06349
P 8050 2450
F 0 "U3" H 8050 2692 50  0000 C CNN
F 1 "LM1117-3.3" H 8050 2601 50  0000 C CNN
F 2 "" H 8050 2450 50  0001 C CNN
F 3 "http://www.ti.com/lit/ds/symlink/lm1117.pdf" H 8050 2450 50  0001 C CNN
	1    8050 2450
	1    0    0    -1  
$EndComp
$Comp
L Device:R R6
U 1 1 60E069A9
P 7300 2450
F 0 "R6" V 7093 2450 50  0000 C CNN
F 1 "15" V 7200 2450 50  0000 C CNN
F 2 "" V 7230 2450 50  0001 C CNN
F 3 "~" H 7300 2450 50  0001 C CNN
	1    7300 2450
	0    1    1    0   
$EndComp
Wire Wire Line
	7050 2450 7150 2450
$Comp
L Device:CP C1
U 1 1 60E0E000
P 7600 2600
F 0 "C1" H 7650 2450 50  0000 L BNN
F 1 "100nF" H 7650 2400 50  0000 L CNN
F 2 "" H 7638 2450 50  0001 C CNN
F 3 "~" H 7600 2600 50  0001 C CNN
	1    7600 2600
	1    0    0    -1  
$EndComp
$Comp
L Device:CP C2
U 1 1 60E229B9
P 8500 2600
F 0 "C2" H 8618 2646 50  0000 L CNN
F 1 "220µF" H 8618 2555 50  0000 L CNN
F 2 "" H 8538 2450 50  0001 C CNN
F 3 "~" H 8500 2600 50  0001 C CNN
	1    8500 2600
	1    0    0    -1  
$EndComp
Wire Wire Line
	7450 2450 7600 2450
Wire Wire Line
	7600 2450 7750 2450
Connection ~ 7600 2450
$Comp
L power:GND #PWR0101
U 1 1 60E2E995
P 8050 3200
F 0 "#PWR0101" H 8050 2950 50  0001 C CNN
F 1 "GND" H 8055 3027 50  0000 C CNN
F 2 "" H 8050 3200 50  0001 C CNN
F 3 "" H 8050 3200 50  0001 C CNN
	1    8050 3200
	1    0    0    -1  
$EndComp
Wire Wire Line
	8050 2750 8050 3200
Connection ~ 8050 3200
Wire Wire Line
	8500 2750 8500 3200
Wire Wire Line
	8500 3200 8050 3200
Wire Wire Line
	7050 2650 7300 2650
Wire Wire Line
	7300 2650 7300 3200
Wire Wire Line
	7300 3200 7600 3200
Wire Wire Line
	7600 2750 7600 3200
Wire Wire Line
	7600 3200 8050 3200
Connection ~ 7600 3200
Wire Wire Line
	8350 2450 8500 2450
Wire Wire Line
	8500 2450 8700 2450
Connection ~ 8500 2450
Wire Wire Line
	7300 1750 7400 1750
Wire Wire Line
	7400 1750 7400 2100
Wire Wire Line
	7400 2100 5450 2100
Wire Wire Line
	5450 2100 5450 2450
Wire Wire Line
	5450 2450 5650 2450
Wire Wire Line
	5400 1450 5200 1450
Wire Wire Line
	5200 1450 5200 2550
Wire Wire Line
	5200 2550 5650 2550
Text Label 8700 2450 0    50   ~ 0
+3V3
$Comp
L Device:R R4
U 1 1 60D73DA8
P 4950 1550
F 0 "R4" V 5150 1500 50  0000 L CNN
F 1 "4.7k" V 5050 1450 50  0000 L CNN
F 2 "" V 4880 1550 50  0001 C CNN
F 3 "~" H 4950 1550 50  0001 C CNN
	1    4950 1550
	0    -1   -1   0   
$EndComp
Wire Wire Line
	5400 1550 5100 1550
Wire Wire Line
	5400 1650 5100 1650
Wire Wire Line
	4800 1550 4700 1550
Wire Wire Line
	4800 1650 4700 1650
Text Label 4700 1550 2    50   ~ 0
+3V3
Text Label 4700 1650 2    50   ~ 0
+3V3
Wire Wire Line
	5400 1750 5400 1900
Wire Wire Line
	5400 1900 4700 1900
Text Label 4700 1900 2    50   ~ 0
+3V3
Wire Wire Line
	7300 1450 7800 1450
Wire Wire Line
	7800 1450 7800 1550
$Comp
L power:GND #PWR0102
U 1 1 60E89E78
P 7800 1550
F 0 "#PWR0102" H 7800 1300 50  0001 C CNN
F 1 "GND" H 7805 1377 50  0000 C CNN
F 2 "" H 7800 1550 50  0001 C CNN
F 3 "" H 7800 1550 50  0001 C CNN
	1    7800 1550
	1    0    0    -1  
$EndComp
Wire Wire Line
	7300 1550 7500 1550
Wire Wire Line
	7300 1650 7500 1650
Text Label 7500 1550 0    50   ~ 0
+3V3
Text Label 7500 1650 0    50   ~ 0
+3V3
Wire Wire Line
	5650 2650 5200 2650
Wire Wire Line
	5200 2650 5200 2750
$Comp
L power:GND #PWR0103
U 1 1 60E8BC1F
P 5200 2750
F 0 "#PWR0103" H 5200 2500 50  0001 C CNN
F 1 "GND" H 5205 2577 50  0000 C CNN
F 2 "" H 5200 2750 50  0001 C CNN
F 3 "" H 5200 2750 50  0001 C CNN
	1    5200 2750
	1    0    0    -1  
$EndComp
$Comp
L Device:LED_Dual_ACA D1
U 1 1 60E8BFE5
P 4750 3200
F 0 "D1" H 4750 3625 50  0000 C CNN
F 1 "LED_Dual_ACA" H 4750 3534 50  0000 C CNN
F 2 "" H 4750 3200 50  0001 C CNN
F 3 "~" H 4750 3200 50  0001 C CNN
	1    4750 3200
	1    0    0    -1  
$EndComp
$Comp
L Device:LED_Dual_ACA D2
U 1 1 60E8CB84
P 4750 3900
F 0 "D2" H 4750 4325 50  0000 C CNN
F 1 "LED_Dual_ACA" H 4750 4234 50  0000 C CNN
F 2 "" H 4750 3900 50  0001 C CNN
F 3 "~" H 4750 3900 50  0001 C CNN
	1    4750 3900
	1    0    0    -1  
$EndComp
$Comp
L Device:LED_Dual_ACA D3
U 1 1 60E8D0A3
P 4750 4600
F 0 "D3" H 4750 5025 50  0000 C CNN
F 1 "LED_Dual_ACA" H 4750 4934 50  0000 C CNN
F 2 "" H 4750 4600 50  0001 C CNN
F 3 "~" H 4750 4600 50  0001 C CNN
	1    4750 4600
	1    0    0    -1  
$EndComp
Wire Wire Line
	5650 3750 5450 3750
Wire Wire Line
	5450 3750 5450 3100
Wire Wire Line
	5450 3100 5050 3100
Wire Wire Line
	5650 3850 5250 3850
Wire Wire Line
	5250 3850 5250 3300
Wire Wire Line
	5250 3300 5050 3300
Wire Wire Line
	5650 3950 5200 3950
Wire Wire Line
	5200 3950 5200 3800
Wire Wire Line
	5200 3800 5050 3800
Wire Wire Line
	5650 4050 5150 4050
Wire Wire Line
	5150 4050 5150 4000
Wire Wire Line
	5150 4000 5050 4000
Wire Wire Line
	5650 4350 5350 4350
Wire Wire Line
	5350 4350 5350 4700
Wire Wire Line
	5350 4700 5050 4700
Wire Wire Line
	5650 4250 5200 4250
Wire Wire Line
	5200 4250 5200 4500
Wire Wire Line
	5200 4500 5050 4500
$Comp
L Device:R R1
U 1 1 60EAA088
P 4150 3200
F 0 "R1" V 3943 3200 50  0000 C CNN
F 1 "330" V 4034 3200 50  0000 C CNN
F 2 "" V 4080 3200 50  0001 C CNN
F 3 "~" H 4150 3200 50  0001 C CNN
	1    4150 3200
	0    1    1    0   
$EndComp
$Comp
L Device:R R2
U 1 1 60EAB7E3
P 4150 3900
F 0 "R2" V 3943 3900 50  0000 C CNN
F 1 "330" V 4034 3900 50  0000 C CNN
F 2 "" V 4080 3900 50  0001 C CNN
F 3 "~" H 4150 3900 50  0001 C CNN
	1    4150 3900
	0    1    1    0   
$EndComp
$Comp
L Device:R R3
U 1 1 60EAC0C0
P 4150 4600
F 0 "R3" V 3943 4600 50  0000 C CNN
F 1 "330" V 4034 4600 50  0000 C CNN
F 2 "" V 4080 4600 50  0001 C CNN
F 3 "~" H 4150 4600 50  0001 C CNN
	1    4150 4600
	0    1    1    0   
$EndComp
Wire Wire Line
	4450 3200 4300 3200
Wire Wire Line
	4450 3900 4300 3900
Wire Wire Line
	4450 4600 4300 4600
Wire Wire Line
	4000 3200 3850 3200
Wire Wire Line
	4000 3900 3850 3900
Wire Wire Line
	4000 4600 3850 4600
$Comp
L power:GND #PWR0104
U 1 1 60EBBF89
P 3850 3200
F 0 "#PWR0104" H 3850 2950 50  0001 C CNN
F 1 "GND" H 3855 3027 50  0000 C CNN
F 2 "" H 3850 3200 50  0001 C CNN
F 3 "" H 3850 3200 50  0001 C CNN
	1    3850 3200
	1    0    0    -1  
$EndComp
$Comp
L power:GND #PWR0105
U 1 1 60EBC466
P 3850 3900
F 0 "#PWR0105" H 3850 3650 50  0001 C CNN
F 1 "GND" H 3855 3727 50  0000 C CNN
F 2 "" H 3850 3900 50  0001 C CNN
F 3 "" H 3850 3900 50  0001 C CNN
	1    3850 3900
	1    0    0    -1  
$EndComp
$Comp
L power:GND #PWR0106
U 1 1 60EBC8EE
P 3850 4600
F 0 "#PWR0106" H 3850 4350 50  0001 C CNN
F 1 "GND" H 3855 4427 50  0000 C CNN
F 2 "" H 3850 4600 50  0001 C CNN
F 3 "" H 3850 4600 50  0001 C CNN
	1    3850 4600
	1    0    0    -1  
$EndComp
$EndSCHEMATC
